risc_v_tb.vcd
$date
	Tue Mar 19 17:17:50 2024
$end
$version
	Icarus Verilog
$end
$timescale
	1ps
$end
$scope module risc_v_tb $end
$var wire 32 ! CPUOut [31:0] $end
$var reg 1 " CLK $end
$var reg 32 # CPUIn [31:0] $end
$var reg 1 $ Reset $end
$scope module dut $end
$var wire 1 " CLK $end
$var wire 32 % CPUIn [31:0] $end
$var wire 1 $ Reset $end
$var wire 32 & SrcA [31:0] $end
$var wire 32 ' WD [31:0] $end
$var wire 32 ( WD3 [31:0] $end
$var wire 1 ) Zero $end
$var wire 32 * SrcB [31:0] $end
$var wire 2 + ResultSrc [1:0] $end
$var wire 32 , Result [31:0] $end
$var wire 1 - RegWrite $end
$var wire 32 . RD2 [31:0] $end
$var wire 32 / RD1 [31:0] $end
$var wire 32 0 RD [31:0] $end
$var wire 32 1 PCTarget [31:0] $end
$var wire 2 2 PCSrc [1:0] $end
$var wire 32 3 PCPlus4 [31:0] $end
$var wire 32 4 PC [31:0] $end
$var wire 1 5 MemWrite $end
$var wire 32 6 Instr [31:0] $end
$var wire 3 7 ImmSrc [2:0] $end
$var wire 32 8 ImmExt [31:0] $end
$var wire 32 9 CPUOut [31:0] $end
$var wire 1 : ALUSrc $end
$var wire 32 ; ALUResult [31:0] $end
$var wire 3 < ALUControl [2:0] $end
$var wire 5 = A3 [4:0] $end
$var wire 5 > A2 [4:0] $end
$var wire 5 ? A1 [4:0] $end
$scope module Result_Mux $end
$var wire 2 @ ResultSrc [1:0] $end
$var wire 32 A RD [31:0] $end
$var wire 32 B PCPlus4 [31:0] $end
$var wire 32 C ALUResult [31:0] $end
$var reg 32 D Result [31:0] $end
$upscope $end
$scope module SrcB_MUX $end
$var wire 32 E RD2 [31:0] $end
$var wire 32 F ImmExt [31:0] $end
$var wire 1 : ALUSrc $end
$var reg 32 G SrcB [31:0] $end
$upscope $end
$scope module alu $end
$var wire 32 H SrcA [31:0] $end
$var wire 32 I SrcB [31:0] $end
$var wire 3 J ALUControl [2:0] $end
$var reg 32 K ALUResult [31:0] $end
$var reg 32 L MuxOut [31:0] $end
$var reg 1 ) Zero $end
$upscope $end
$scope module control_unit $end
$var wire 1 ) Zero $end
$var wire 7 M opcode [6:0] $end
$var wire 7 N funct7 [6:0] $end
$var wire 3 O funct3 [2:0] $end
$var wire 32 P Instr [31:0] $end
$var reg 3 Q ALUControl [2:0] $end
$var reg 1 : ALUSrc $end
$var reg 3 R ImmSrc [2:0] $end
$var reg 1 5 MemWrite $end
$var reg 2 S PCSrc [1:0] $end
$var reg 1 - RegWrite $end
$var reg 2 T ResultSrc [1:0] $end
$upscope $end
$scope module data_memory_and_io $end
$var wire 32 U A [31:0] $end
$var wire 1 " CLK $end
$var wire 32 V CPUIn [31:0] $end
$var wire 32 W WD [31:0] $end
$var wire 1 5 WE $end
$var wire 1 X RDsel $end
$var wire 32 Y RD [31:0] $end
$var reg 32 Z CPUOut [31:0] $end
$var reg 1 [ WEM $end
$var reg 1 \ WEOut $end
$upscope $end
$scope module extend $end
$var wire 3 ] ImmSrc [2:0] $end
$var wire 32 ^ Instr [31:0] $end
$var reg 32 _ ImmExt [31:0] $end
$upscope $end
$scope module instruction_memory $end
$var wire 32 ` Instr [31:0] $end
$var wire 32 a PC_divided_by_4 [31:0] $end
$var wire 32 b PC [31:0] $end
$upscope $end
$scope module program_counter $end
$var wire 32 c ALUResult [31:0] $end
$var wire 1 " CLK $end
$var wire 32 d PC [31:0] $end
$var wire 32 e PCPlus4 [31:0] $end
$var wire 2 f PCSrc [1:0] $end
$var wire 32 g PCTarget [31:0] $end
$var wire 1 $ Reset $end
$var wire 32 h PCPlus4Out [31:0] $end
$var wire 32 i PCOut [31:0] $end
$var wire 32 j PCNext [31:0] $end
$scope module adder_4 $end
$var wire 32 k PCPlus4 [31:0] $end
$var wire 32 l PC [31:0] $end
$upscope $end
$scope module mux_3_to_1 $end
$var wire 32 m a [31:0] $end
$var wire 32 n b [31:0] $end
$var wire 32 o c [31:0] $end
$var wire 2 p select [1:0] $end
$var reg 32 q mux_out [31:0] $end
$upscope $end
$scope module pc $end
$var wire 1 " clk $end
$var wire 32 r pc_in [31:0] $end
$var wire 1 $ reset $end
$var reg 32 s pc_out [31:0] $end
$upscope $end
$upscope $end
$scope module reg_file $end
$var wire 5 t A1 [4:0] $end
$var wire 5 u A2 [4:0] $end
$var wire 5 v A3 [4:0] $end
$var wire 1 " CLK $end
$var wire 32 w WD3 [31:0] $end
$var wire 1 - WE3 $end
$var wire 32 x RD2 [31:0] $end
$var wire 32 y RD1 [31:0] $end
$upscope $end
$upscope $end
$upscope $end
$enddefinitions $end
#0
$dumpvars
b0 y
bx x
b110010 w
b1 v
b10010 u
b0 t
b0 s
b100 r
b100 q
b0 p
b110010 o
b110010 n
b100 m
b0 l
b100 k
b100 j
b0 i
b100 h
b110010 g
b0 f
b100 e
b0 d
b110010 c
b0 b
b0 a
b11001000000000000010010011 `
b110010 _
b11001000000000000010010011 ^
b0 ]
0\
0[
bx Z
bx Y
0X
bx W
b1000 V
b110010 U
b0 T
b0 S
b0 R
b0 Q
b11001000000000000010010011 P
b0 O
b1 N
b10011 M
b110010 L
b110010 K
b0 J
b110010 I
b0 H
b110010 G
b110010 F
bx E
b110010 D
b110010 C
b100 B
bx A
b0 @
b0 ?
b10010 >
b1 =
b0 <
b110010 ;
1:
bx 9
b110010 8
b0 7
b11001000000000000010010011 6
05
b0 4
b100 3
b0 2
b110010 1
bx 0
b0 /
bx .
1-
b110010 ,
b0 +
b110010 *
0)
b110010 (
bx '
b0 &
b1000 %
1$
b1000 #
0"
bx !
$end
#10000
1"
#20000
0"
0$
#30000
b1000 0
b1000 A
b1000 Y
1X
b1000 (
b1000 w
b1000 ,
b1000 D
b11111111111111111111111111111100 ;
b11111111111111111111111111111100 C
b11111111111111111111111111111100 K
b11111111111111111111111111111100 U
b11111111111111111111111111111100 c
b11111111111111111111111111111100 o
b11111111111111111111111111111100 L
b1 +
b1 @
b1 T
1:
b11111111111111111111111111111100 *
b11111111111111111111111111111100 G
b11111111111111111111111111111100 I
b1111111 N
b10 O
b11 M
b10 =
b10 v
b11100 >
b11100 u
b11111111111111111111111111111100 8
b11111111111111111111111111111100 F
b11111111111111111111111111111100 _
b1000 j
b1000 q
b1000 r
b1000 3
b1000 B
b1000 e
b1000 h
b1000 k
b1000 m
b11111111110000000010000100000011 6
b11111111110000000010000100000011 P
b11111111110000000010000100000011 ^
b11111111110000000010000100000011 `
b1 a
b0 1
b0 g
b0 n
b100 4
b100 b
b100 d
b100 i
b100 l
b100 s
1"
#40000
0"
#50000
bx 0
bx A
bx Y
0X
b101010 (
b101010 w
b101010 ,
b101010 D
b1000 '
b1000 W
b1000 .
b1000 E
b1000 x
b110010 &
b110010 H
b110010 /
b110010 y
b101010 ;
b101010 C
b101010 K
b101010 U
b101010 c
b101010 o
b101010 L
b1 <
b1 J
b1 Q
b0 +
b0 @
b0 T
0:
b1000 *
b1000 G
b1000 I
b100000 N
b0 O
b110011 M
b11 =
b11 v
b10 >
b10 u
b1 ?
b1 t
b10000000010 8
b10000000010 F
b10000000010 _
b1100 j
b1100 q
b1100 r
b1100 3
b1100 B
b1100 e
b1100 h
b1100 k
b1100 m
b1000000001000001000000110110011 6
b1000000001000001000000110110011 P
b1000000001000001000000110110011 ^
b1000000001000001000000110110011 `
b10 a
b10000001010 1
b10000001010 g
b10000001010 n
b1000 4
b1000 b
b1000 d
b1000 i
b1000 l
b1000 s
1"
#60000
0"
#70000
b1000 0
b1000 A
b1000 Y
1X
1\
bx (
bx w
bx ,
bx D
b11111111111111111111111111111100 *
b11111111111111111111111111111100 G
b11111111111111111111111111111100 I
b101010 '
b101010 W
b101010 .
b101010 E
b101010 x
b0 &
b0 H
b0 /
b0 y
b11111111111111111111111111111100 ;
b11111111111111111111111111111100 C
b11111111111111111111111111111100 K
b11111111111111111111111111111100 U
b11111111111111111111111111111100 c
b11111111111111111111111111111100 o
b11111111111111111111111111111100 L
0[
bx +
bx @
bx T
15
1:
b1 7
b1 R
b1 ]
0-
b0 <
b0 J
b0 Q
b1111111 N
b10 O
b100011 M
b11100 =
b11100 v
b11 >
b11 u
b0 ?
b0 t
b11111111111111111111111111111100 8
b11111111111111111111111111111100 F
b11111111111111111111111111111100 _
b10000 j
b10000 q
b10000 r
b10000 3
b10000 B
b10000 e
b10000 h
b10000 k
b10000 m
b11111110001100000010111000100011 6
b11111110001100000010111000100011 P
b11111110001100000010111000100011 ^
b11111110001100000010111000100011 `
b11 a
b1000 1
b1000 g
b1000 n
b1100 4
b1100 b
b1100 d
b1100 i
b1100 l
b1100 s
1"
#80000
0"
#90000
bx 0
bx A
bx Y
0X
b0 (
b0 w
b0 ,
b0 D
b1000 '
b1000 W
b1000 .
b1000 E
b1000 x
b110010 &
b110010 H
b110010 /
b110010 y
1)
b0 ;
b0 C
b0 K
b0 U
b0 c
b0 o
b0 L
0\
b10 <
b10 J
b10 Q
b0 +
b0 @
b0 T
05
0:
b0 7
b0 R
b0 ]
1-
b1000 *
b1000 G
b1000 I
b0 N
b111 O
b110011 M
b100 =
b100 v
b10 >
b10 u
b1 ?
b1 t
b10 8
b10 F
b10 _
b10100 j
b10100 q
b10100 r
b101010 !
b101010 9
b101010 Z
b10100 3
b10100 B
b10100 e
b10100 h
b10100 k
b10100 m
b1000001111001000110011 6
b1000001111001000110011 P
b1000001111001000110011 ^
b1000001111001000110011 `
b100 a
b10010 1
b10010 g
b10010 n
b10000 4
b10000 b
b10000 d
b10000 i
b10000 l
b10000 s
1"
#100000
0"
#110000
b0 *
b0 G
b0 I
b0 (
b0 w
b0 ,
b0 D
b0 '
b0 W
b0 .
b0 E
b0 x
b0 &
b0 H
b0 /
b0 y
1)
b0 ;
b0 C
b0 K
b0 U
b0 c
b0 o
b0 L
b11 <
b11 J
b11 Q
b110 O
b101 =
b101 v
b100 >
b100 u
b0 ?
b0 t
b100 8
b100 F
b100 _
b11000 j
b11000 q
b11000 r
b11000 3
b11000 B
b11000 e
b11000 h
b11000 k
b11000 m
b10000000110001010110011 6
b10000000110001010110011 P
b10000000110001010110011 ^
b10000000110001010110011 `
b101 a
b11000 1
b11000 g
b11000 n
b10100 4
b10100 b
b10100 d
b10100 i
b10100 l
b10100 s
1"
#120000
0"
#130000
b1 (
b1 w
b1 ,
b1 D
0)
b1 ;
b1 C
b1 K
b1 U
b1 c
b1 o
b1 L
b110010 *
b110010 G
b110010 I
b110010 '
b110010 W
b110010 .
b110010 E
b110010 x
b101 <
b101 J
b101 Q
b10 O
b110 =
b110 v
b1 >
b1 u
b1 8
b1 F
b1 _
b11100 j
b11100 q
b11100 r
b11100 3
b11100 B
b11100 e
b11100 h
b11100 k
b11100 m
b100000010001100110011 6
b100000010001100110011 P
b100000010001100110011 ^
b100000010001100110011 `
b110 a
b11001 1
b11001 g
b11001 n
b11000 4
b11000 b
b11000 d
b11000 i
b11000 l
b11000 s
1"
#140000
0"
#150000
b1000 *
b1000 G
b1000 I
b1001 (
b1001 w
b1001 ,
b1001 D
b1000 '
b1000 W
b1000 .
b1000 E
b1000 x
b1 &
b1 H
b1 /
b1 y
b1001 ;
b1001 C
b1001 K
b1001 U
b1001 c
b1001 o
b1001 L
b0 <
b0 J
b0 Q
b0 O
b111 =
b111 v
b10 >
b10 u
b110 ?
b110 t
b10 8
b10 F
b10 _
b100000 j
b100000 q
b100000 r
b100000 3
b100000 B
b100000 e
b100000 h
b100000 k
b100000 m
b1000110000001110110011 6
b1000110000001110110011 P
b1000110000001110110011 ^
b1000110000001110110011 `
b111 a
b11110 1
b11110 g
b11110 n
b11100 4
b11100 b
b11100 d
b11100 i
b11100 l
b11100 s
1"
#160000
0"
#170000
b110010 (
b110010 w
b110010 ,
b110010 D
b110010 ;
b110010 C
b110010 K
b110010 U
b110010 c
b110010 o
b110010 L
b0 *
b0 G
b0 I
b0 '
b0 W
b0 .
b0 E
b0 x
b110010 &
b110010 H
b110010 /
b110010 y
b11 <
b11 J
b11 Q
1:
b110 O
b10011 M
b1000 =
b1000 v
b0 >
b0 u
b1 ?
b1 t
b0 8
b0 F
b0 _
b100100 j
b100100 q
b100100 r
b100100 3
b100100 B
b100100 e
b100100 h
b100100 k
b100100 m
b1110010000010011 6
b1110010000010011 P
b1110010000010011 ^
b1110010000010011 `
b1000 a
b100000 1
b100000 g
b100000 n
b100000 4
b100000 b
b100000 d
b100000 i
b100000 l
b100000 s
1"
#180000
0"
#190000
b0 (
b0 w
b0 ,
b0 D
1)
b0 ;
b0 C
b0 K
b0 U
b0 c
b0 o
b0 L
b1000 &
b1000 H
b1000 /
b1000 y
b10 <
b10 J
b10 Q
1:
b111 O
b1001 =
b1001 v
b10 ?
b10 t
b101000 j
b101000 q
b101000 r
b101000 3
b101000 B
b101000 e
b101000 h
b101000 k
b101000 m
b10111010010010011 6
b10111010010010011 P
b10111010010010011 ^
b10111010010010011 `
b1001 a
b100100 1
b100100 g
b100100 n
b100100 4
b100100 b
b100100 d
b100100 i
b100100 l
b100100 s
1"
#200000
0"
#210000
b101100 (
b101100 w
b101100 ,
b101100 D
b0 &
b0 H
b0 /
b0 y
b1 2
b1 S
b1 f
b1 p
b10 +
b10 @
b10 T
b11 7
b11 R
b11 ]
bx <
bx J
bx Q
x:
bx *
bx G
bx I
b0 O
b1101111 M
b1010 =
b1010 v
b100 >
b100 u
b0 ?
b0 t
b100 8
b100 F
b100 _
b101100 j
b101100 q
b101100 r
b101100 3
b101100 B
b101100 e
b101100 h
b101100 k
b101100 m
b10000000000010101101111 6
b10000000000010101101111 P
b10000000000010101101111 ^
b10000000000010101101111 `
b1010 a
b101100 1
b101100 g
b101100 n
b101000 4
b101000 b
b101000 d
b101000 i
b101000 l
b101000 s
1"
#220000
0"
#230000
0X
b100 *
b100 G
b100 I
b101100 &
b101100 H
b101100 /
b101100 y
0)
b110000 ;
b110000 C
b110000 K
b110000 U
b110000 c
b110000 o
b110000 L
b10 2
b10 S
b10 f
b10 p
b10 +
b10 @
b10 T
b0 <
b0 J
b0 Q
1:
b0 7
b0 R
b0 ]
b110000 (
b110000 w
b110000 ,
b110000 D
b1100111 M
b1011 =
b1011 v
b1010 ?
b1010 t
b100 8
b100 F
b100 _
b110000 j
b110000 q
b110000 r
b110000 3
b110000 B
b110000 e
b110000 h
b110000 k
b110000 m
b10001010000010111100111 6
b10001010000010111100111 P
b10001010000010111100111 ^
b10001010000010111100111 `
b1011 a
b110000 1
b110000 g
b110000 n
b101100 4
b101100 b
b101100 d
b101100 i
b101100 l
b101100 s
1"
#240000
0"
#250000
b0 &
b0 H
b0 /
b0 y
1)
b0 ;
b0 C
b0 K
b0 U
b0 c
b0 o
b0 L
b110100 j
b110100 q
b110100 r
b100 <
b100 J
b100 Q
b100 7
b100 R
b100 ]
b0 2
b0 S
b0 f
b0 p
b0 +
b0 @
b0 T
1:
b0 *
b0 G
b0 I
b0 (
b0 w
b0 ,
b0 D
b110111 M
b1100 =
b1100 v
b0 >
b0 u
b0 ?
b0 t
b0 8
b0 F
b0 _
b110100 3
b110100 B
b110100 e
b110100 h
b110100 k
b110100 m
b11000110111 6
b11000110111 P
b11000110111 ^
b11000110111 `
b1100 a
b110000 1
b110000 g
b110000 n
b110000 4
b110000 b
b110000 d
b110000 i
b110000 l
b110000 s
1"
#260000
0"
#270000
b1 2
b1 S
b1 f
b1 p
0-
b1 <
b1 J
b1 Q
0:
b10 7
b10 R
b10 ]
b1100011 M
b0 =
b0 v
b110100 j
b110100 q
b110100 r
b111000 3
b111000 B
b111000 e
b111000 h
b111000 k
b111000 m
b1100011 6
b1100011 P
b1100011 ^
b1100011 `
b1101 a
b110100 1
b110100 g
b110100 n
b110100 4
b110100 b
b110100 d
b110100 i
b110100 l
b110100 s
1"
